%YAML 1.1
%TAG !u! tag:unity3d.com,2011:
--- !u!21 &2100000
Material:
  serializedVersion: 6
  m_ObjectHideFlags: 0
  m_PrefabParentObject: {fileID: 0}
  m_PrefabInternal: {fileID: 0}
  m_Name: s_gem
  m_Shader: {fileID: 32, guid: 0000000000000000f000000000000000, type: 0}
  m_ShaderKeywords: 
  m_LightmapFlags: 5
  m_CustomRenderQueue: -1
  stringTagMap: {}
  m_SavedProperties:
    serializedVersion: 2
    m_TexEnvs:
      data:
        first:
          name: _MainTex
        second:
          m_Texture: {fileID: 2800000, guid: 34f5dfeb2597f624aa8caf6f79d53371, type: 3}
          m_Scale: {x: 1, y: 1}
          m_Offset: {x: 0, y: 0}
    m_Floats:
      data:
        first:
          name: _Shininess
        second: .0523092486
    m_Colors:
      data:
        first:
          name: _Color
        second: {r: .820895553, g: .820895553, b: .820895553, a: .858823538}
      data:
        first:
          name: _SpecColor
        second: {r: .447761178, g: .447761178, b: .447761178, a: 1}
