%YAML 1.1
%TAG !u! tag:unity3d.com,2011:
--- !u!21 &2100000
Material:
  serializedVersion: 6
  m_ObjectHideFlags: 0
  m_PrefabParentObject: {fileID: 0}
  m_PrefabInternal: {fileID: 0}
  m_Name: 1_crystal
  m_Shader: {fileID: 32, guid: 0000000000000000f000000000000000, type: 0}
  m_ShaderKeywords: 
  m_LightmapFlags: 5
  m_CustomRenderQueue: -1
  stringTagMap: {}
  m_SavedProperties:
    serializedVersion: 2
    m_TexEnvs:
      data:
        first:
          name: _MainTex
        second:
          m_Texture: {fileID: 2800000, guid: eb1b701e033bdaf428f8aeac03bc350c, type: 3}
          m_Scale: {x: 1, y: 1}
          m_Offset: {x: 0, y: 0}
    m_Floats:
      data:
        first:
          name: _Shininess
        second: .139754131
      data:
        first:
          name: _InvFade
        second: 1
    m_Colors:
      data:
        first:
          name: _Color
        second: {r: .477611959, g: .459790617, b: .459790617, a: .513725519}
      data:
        first:
          name: _SpecColor
        second: {r: .462686539, g: .462686539, b: .462686539, a: 0}
      data:
        first:
          name: _TintColor
        second: {r: .5, g: .5, b: .5, a: .5}
