avatarMale animation information

0-60 standstill
60-120 standstill2
121-145 walking
146-166 running
167-199 riding
200-260 holding staff stand
260-280 dodge
280-295 been hit
296-745 heavy breath
745-806 take things
807-831 walk back
832-852 run back
853-877 climb
878-898 jump
900-1029 idle
