%YAML 1.1
%TAG !u! tag:unity3d.com,2011:
--- !u!74 &7400000
AnimationClip:
  m_ObjectHideFlags: 0
  m_PrefabParentObject: {fileID: 0}
  m_PrefabInternal: {fileID: 0}
  m_Name: 7_BridgeBreak6
  serializedVersion: 6
  m_Legacy: 1
  m_Compressed: 0
  m_UseHighQualityCurve: 1
  m_RotationCurves:
  - curve:
      serializedVersion: 2
      m_Curve:
      - time: 0
        value: {x: .707106769, y: 0, z: 0, w: -.707106769}
        inSlope: {x: -.496516198, y: 0, z: 0, w: -.490772694}
        outSlope: {x: -.496516198, y: 0, z: 0, w: -.490772694}
        tangentMode: -559038737
      - time: .833333194
        value: {x: .202217609, y: 0, z: 0, w: -.979340613}
        inSlope: {x: -.683701992, y: 0, z: 0, w: -.141171947}
        outSlope: {x: -.683701992, y: 0, z: 0, w: -.141171947}
        tangentMode: -559038737
      - time: 1
        value: {x: .0871558785, y: 0, z: 0, w: -.996194661}
        inSlope: {x: -.695094347, y: 0, z: 0, w: -.0648869053}
        outSlope: {x: -.695094347, y: 0, z: 0, w: -.0648869053}
        tangentMode: -33689617
      m_PreInfinity: 2
      m_PostInfinity: 2
    path: 
  m_CompressedRotationCurves: []
  m_PositionCurves:
  - curve:
      serializedVersion: 2
      m_Curve:
      - time: 0
        value: {x: -71.6707916, y: -.805902004, z: -2.77712607}
        inSlope: {x: 0, y: 0, z: .868486404}
        outSlope: {x: 0, y: 0, z: .868486404}
        tangentMode: -559038737
      - time: 1
        value: {x: -71.6707916, y: -14.963932, z: -1.90863967}
        inSlope: {x: 0, y: -27.9176273, z: .868486404}
        outSlope: {x: 0, y: -27.9176273, z: .868486404}
        tangentMode: -559038737
      m_PreInfinity: 2
      m_PostInfinity: 2
    path: 
  m_ScaleCurves: []
  m_FloatCurves: []
  m_PPtrCurves: []
  m_SampleRate: 60
  m_WrapMode: 0
  m_Bounds:
    m_Center: {x: 0, y: 0, z: 0}
    m_Extent: {x: 0, y: 0, z: 0}
  m_ClipBindingConstant:
    genericBindings: []
    pptrCurveMapping: []
  m_AnimationClipSettings:
    serializedVersion: 2
    m_StartTime: 0
    m_StopTime: 1
    m_OrientationOffsetY: 0
    m_Level: 0
    m_CycleOffset: 0
    m_LoopTime: 0
    m_LoopBlend: 0
    m_LoopBlendOrientation: 0
    m_LoopBlendPositionY: 0
    m_LoopBlendPositionXZ: 0
    m_KeepOriginalOrientation: 0
    m_KeepOriginalPositionY: 1
    m_KeepOriginalPositionXZ: 0
    m_HeightFromFeet: 0
    m_Mirror: 0
  m_EditorCurves:
  - curve:
      serializedVersion: 2
      m_Curve:
      - time: 0
        value: -71.6707916
        inSlope: 0
        outSlope: 0
        tangentMode: 10
      - time: 1
        value: -71.6707916
        inSlope: 0
        outSlope: 0
        tangentMode: 10
      m_PreInfinity: 2
      m_PostInfinity: 2
    attribute: m_LocalPosition.x
    path: 
    classID: 4
    script: {fileID: 0}
  - curve:
      serializedVersion: 2
      m_Curve:
      - time: 0
        value: -.805902004
        inSlope: 0
        outSlope: 0
        tangentMode: 0
      - time: 1
        value: -14.963932
        inSlope: -27.9176273
        outSlope: -27.9176273
        tangentMode: 0
      m_PreInfinity: 2
      m_PostInfinity: 2
    attribute: m_LocalPosition.y
    path: 
    classID: 4
    script: {fileID: 0}
  - curve:
      serializedVersion: 2
      m_Curve:
      - time: 0
        value: -2.77712607
        inSlope: .868486404
        outSlope: .868486404
        tangentMode: 10
      - time: 1
        value: -1.90863967
        inSlope: .868486404
        outSlope: .868486404
        tangentMode: 10
      m_PreInfinity: 2
      m_PostInfinity: 2
    attribute: m_LocalPosition.z
    path: 
    classID: 4
    script: {fileID: 0}
  - curve:
      serializedVersion: 2
      m_Curve:
      - time: 0
        value: .707106769
        inSlope: -.496516198
        outSlope: -.496516198
        tangentMode: 0
      - time: .833333194
        value: .202217609
        inSlope: -.683701992
        outSlope: -.683701992
        tangentMode: 0
      - time: 1
        value: .0871558785
        inSlope: -.695094347
        outSlope: -.695094347
        tangentMode: 0
      m_PreInfinity: 2
      m_PostInfinity: 2
    attribute: m_LocalRotation.x
    path: 
    classID: 4
    script: {fileID: 0}
  - curve:
      serializedVersion: 2
      m_Curve:
      - time: 0
        value: 0
        inSlope: 0
        outSlope: 0
        tangentMode: 0
      - time: .833333194
        value: 0
        inSlope: 0
        outSlope: 0
        tangentMode: 0
      - time: 1
        value: 0
        inSlope: 0
        outSlope: 0
        tangentMode: 0
      m_PreInfinity: 2
      m_PostInfinity: 2
    attribute: m_LocalRotation.y
    path: 
    classID: 4
    script: {fileID: 0}
  - curve:
      serializedVersion: 2
      m_Curve:
      - time: 0
        value: 0
        inSlope: 0
        outSlope: 0
        tangentMode: 0
      - time: .833333194
        value: 0
        inSlope: 0
        outSlope: 0
        tangentMode: 0
      - time: 1
        value: 0
        inSlope: 0
        outSlope: 0
        tangentMode: 0
      m_PreInfinity: 2
      m_PostInfinity: 2
    attribute: m_LocalRotation.z
    path: 
    classID: 4
    script: {fileID: 0}
  - curve:
      serializedVersion: 2
      m_Curve:
      - time: 0
        value: -.707106769
        inSlope: -.490772694
        outSlope: -.490772694
        tangentMode: 0
      - time: .833333194
        value: -.979340613
        inSlope: -.141171947
        outSlope: -.141171947
        tangentMode: 0
      - time: 1
        value: -.996194661
        inSlope: -.0648869053
        outSlope: -.0648869053
        tangentMode: 0
      m_PreInfinity: 2
      m_PostInfinity: 2
    attribute: m_LocalRotation.w
    path: 
    classID: 4
    script: {fileID: 0}
  m_EulerEditorCurves:
  - curve:
      serializedVersion: 2
      m_Curve:
      - time: 0
        value: 270
        inSlope: 80
        outSlope: 80
        tangentMode: 10
      - time: 1
        value: 350
        inSlope: 80
        outSlope: 80
        tangentMode: 10
      m_PreInfinity: 2
      m_PostInfinity: 2
    attribute: localEulerAnglesBaked.x
    path: 
    classID: 4
    script: {fileID: 0}
  - curve:
      serializedVersion: 2
      m_Curve:
      - time: 0
        value: 0
        inSlope: 0
        outSlope: 0
        tangentMode: 10
      - time: 1
        value: 0
        inSlope: 0
        outSlope: 0
        tangentMode: 10
      m_PreInfinity: 2
      m_PostInfinity: 2
    attribute: localEulerAnglesBaked.y
    path: 
    classID: 4
    script: {fileID: 0}
  - curve:
      serializedVersion: 2
      m_Curve:
      - time: 0
        value: 0
        inSlope: 0
        outSlope: 0
        tangentMode: 10
      - time: 1
        value: 0
        inSlope: 0
        outSlope: 0
        tangentMode: 10
      m_PreInfinity: 2
      m_PostInfinity: 2
    attribute: localEulerAnglesBaked.z
    path: 
    classID: 4
    script: {fileID: 0}
  m_HasGenericRootTransform: 0
  m_HasMotionFloatCurves: 0
  m_GenerateMotionCurves: 0
  m_Events:
  - time: 0
    functionName: TriggerRocks
    data: 
    objectReferenceParameter: {fileID: 0}
    floatParameter: 0
    intParameter: 0
    messageOptions: 0
