%YAML 1.1
%TAG !u! tag:unity3d.com,2011:
--- !u!74 &7400000
AnimationClip:
  m_ObjectHideFlags: 0
  m_PrefabParentObject: {fileID: 0}
  m_PrefabInternal: {fileID: 0}
  m_Name: 7_BridgeBreak4
  serializedVersion: 6
  m_Legacy: 1
  m_Compressed: 0
  m_UseHighQualityCurve: 1
  m_RotationCurves:
  - curve:
      serializedVersion: 2
      m_Curve:
      - time: 0
        value: {x: .707106769, y: 0, z: 0, w: -.707106769}
        inSlope: {x: .490772694, y: 0, z: 0, w: .496512622}
        outSlope: {x: .490772694, y: 0, z: 0, w: .496512622}
        tangentMode: -559038737
      - time: .833333194
        value: {x: .979340613, y: 0, z: 0, w: -.202217609}
        inSlope: {x: .141171947, y: 0, z: 0, w: .683691263}
        outSlope: {x: .141171947, y: 0, z: 0, w: .683691263}
        tangentMode: -559038737
      - time: 1
        value: {x: .99619472, y: 0, z: 0, w: -.0871557668}
        inSlope: {x: .0648904815, y: 0, z: 0, w: .695101917}
        outSlope: {x: .0648904815, y: 0, z: 0, w: .695101917}
        tangentMode: -559038737
      m_PreInfinity: 2
      m_PostInfinity: 2
    path: 
  m_CompressedRotationCurves: []
  m_PositionCurves:
  - curve:
      serializedVersion: 2
      m_Curve:
      - time: 0
        value: {x: -62.8850174, y: -.805896997, z: -7.05563211}
        inSlope: {x: 0, y: 0, z: -1.09385824}
        outSlope: {x: 0, y: 0, z: -1.09385824}
        tangentMode: -559038737
      - time: 1
        value: {x: -62.8850174, y: -14.6062136, z: -8.14949036}
        inSlope: {x: 0, y: -24.2165451, z: -1.09385824}
        outSlope: {x: 0, y: -24.2165451, z: -1.09385824}
        tangentMode: -559038737
      m_PreInfinity: 2
      m_PostInfinity: 2
    path: 
  m_ScaleCurves: []
  m_FloatCurves: []
  m_PPtrCurves: []
  m_SampleRate: 60
  m_WrapMode: 0
  m_Bounds:
    m_Center: {x: 0, y: 0, z: 0}
    m_Extent: {x: 0, y: 0, z: 0}
  m_ClipBindingConstant:
    genericBindings: []
    pptrCurveMapping: []
  m_AnimationClipSettings:
    serializedVersion: 2
    m_StartTime: 0
    m_StopTime: 1
    m_OrientationOffsetY: 0
    m_Level: 0
    m_CycleOffset: 0
    m_LoopTime: 0
    m_LoopBlend: 0
    m_LoopBlendOrientation: 0
    m_LoopBlendPositionY: 0
    m_LoopBlendPositionXZ: 0
    m_KeepOriginalOrientation: 0
    m_KeepOriginalPositionY: 1
    m_KeepOriginalPositionXZ: 0
    m_HeightFromFeet: 0
    m_Mirror: 0
  m_EditorCurves:
  - curve:
      serializedVersion: 2
      m_Curve:
      - time: 0
        value: -62.8850174
        inSlope: 0
        outSlope: 0
        tangentMode: 10
      - time: 1
        value: -62.8850174
        inSlope: 0
        outSlope: 0
        tangentMode: 10
      m_PreInfinity: 2
      m_PostInfinity: 2
    attribute: m_LocalPosition.x
    path: 
    classID: 4
    script: {fileID: 0}
  - curve:
      serializedVersion: 2
      m_Curve:
      - time: 0
        value: -.805896997
        inSlope: 0
        outSlope: 0
        tangentMode: 0
      - time: 1
        value: -14.6062136
        inSlope: -24.2165451
        outSlope: -24.2165451
        tangentMode: 0
      m_PreInfinity: 2
      m_PostInfinity: 2
    attribute: m_LocalPosition.y
    path: 
    classID: 4
    script: {fileID: 0}
  - curve:
      serializedVersion: 2
      m_Curve:
      - time: 0
        value: -7.05563211
        inSlope: -1.09385824
        outSlope: -1.09385824
        tangentMode: 10
      - time: 1
        value: -8.14949036
        inSlope: -1.09385824
        outSlope: -1.09385824
        tangentMode: 10
      m_PreInfinity: 2
      m_PostInfinity: 2
    attribute: m_LocalPosition.z
    path: 
    classID: 4
    script: {fileID: 0}
  - curve:
      serializedVersion: 2
      m_Curve:
      - time: 0
        value: .707106769
        inSlope: .490772694
        outSlope: .490772694
        tangentMode: 0
      - time: .833333194
        value: .979340613
        inSlope: .141171947
        outSlope: .141171947
        tangentMode: 0
      - time: 1
        value: .99619472
        inSlope: .0648904815
        outSlope: .0648904815
        tangentMode: 0
      m_PreInfinity: 2
      m_PostInfinity: 2
    attribute: m_LocalRotation.x
    path: 
    classID: 4
    script: {fileID: 0}
  - curve:
      serializedVersion: 2
      m_Curve:
      - time: 0
        value: 0
        inSlope: 0
        outSlope: 0
        tangentMode: 0
      - time: .833333194
        value: 0
        inSlope: 0
        outSlope: 0
        tangentMode: 0
      - time: 1
        value: 0
        inSlope: 0
        outSlope: 0
        tangentMode: 0
      m_PreInfinity: 2
      m_PostInfinity: 2
    attribute: m_LocalRotation.y
    path: 
    classID: 4
    script: {fileID: 0}
  - curve:
      serializedVersion: 2
      m_Curve:
      - time: 0
        value: 0
        inSlope: 0
        outSlope: 0
        tangentMode: 0
      - time: .833333194
        value: 0
        inSlope: 0
        outSlope: 0
        tangentMode: 0
      - time: 1
        value: 0
        inSlope: 0
        outSlope: 0
        tangentMode: 0
      m_PreInfinity: 2
      m_PostInfinity: 2
    attribute: m_LocalRotation.z
    path: 
    classID: 4
    script: {fileID: 0}
  - curve:
      serializedVersion: 2
      m_Curve:
      - time: 0
        value: -.707106769
        inSlope: .496512622
        outSlope: .496512622
        tangentMode: 0
      - time: .833333194
        value: -.202217609
        inSlope: .683691263
        outSlope: .683691263
        tangentMode: 0
      - time: 1
        value: -.0871557668
        inSlope: .695101917
        outSlope: .695101917
        tangentMode: 0
      m_PreInfinity: 2
      m_PostInfinity: 2
    attribute: m_LocalRotation.w
    path: 
    classID: 4
    script: {fileID: 0}
  m_EulerEditorCurves:
  - curve:
      serializedVersion: 2
      m_Curve:
      - time: 0
        value: 270
        inSlope: -80
        outSlope: -80
        tangentMode: 10
      - time: 1
        value: 190
        inSlope: -80
        outSlope: -80
        tangentMode: 10
      m_PreInfinity: 2
      m_PostInfinity: 2
    attribute: localEulerAnglesBaked.x
    path: 
    classID: 4
    script: {fileID: 0}
  - curve:
      serializedVersion: 2
      m_Curve:
      - time: 0
        value: 0
        inSlope: -180.000015
        outSlope: -180.000015
        tangentMode: 10
      m_PreInfinity: 2
      m_PostInfinity: 2
    attribute: localEulerAnglesBaked.y
    path: 
    classID: 4
    script: {fileID: 0}
  - curve:
      serializedVersion: 2
      m_Curve:
      - time: 0
        value: 0
        inSlope: -180.000015
        outSlope: -180.000015
        tangentMode: 10
      m_PreInfinity: 2
      m_PostInfinity: 2
    attribute: localEulerAnglesBaked.z
    path: 
    classID: 4
    script: {fileID: 0}
  m_HasGenericRootTransform: 0
  m_HasMotionFloatCurves: 0
  m_GenerateMotionCurves: 0
  m_Events:
  - time: 0
    functionName: TriggerRocks
    data: 
    objectReferenceParameter: {fileID: 0}
    floatParameter: 0
    intParameter: 0
    messageOptions: 0
