material metia/spinl
{
	technique
	{
		pass
		{
			lighting off
			scene_blend alpha_blend

			texture_unit
			{
				texture spinl.png
			}
		}
	}
}
material metia/spinr
{
	technique
	{
		pass
		{
			lighting off
			scene_blend alpha_blend

			texture_unit
			{
				texture spinr.png
			}
		}
	}
}
