material metia/front1
{
	technique
	{
		pass
		{
			lighting off
			
				scene_blend alpha_blend
			texture_unit
			{
				texture black.png
			}
		}
	}
}

material metia/front2
{
	technique
	{
		pass
		{
			lighting off
			
			scene_blend alpha_blend
			texture_unit
			{
				texture Logos.jpg
			}
		}
	}
}

material metia/front3
{
	technique
	{
		pass
		{
			lighting off
			
			scene_blend alpha_blend
			texture_unit
			{
				texture greetings.png
			}
		}
	}
}

material metia/front4
{
	technique
	{
		pass
		{
			lighting off
			
			scene_blend alpha_blend
			texture_unit
			{
				texture Splash.jpg
			}
		}
	}
}

material metia/frontwhite
{
	technique
	{
		pass
		{
			lighting off
			
			scene_blend alpha_blend
			texture_unit
			{
				texture white.png
			}
		}
	}
}

material metia/frontwhite2
{
	technique
	{
		pass
		{
			lighting off
			
			scene_blend alpha_blend
			texture_unit
			{
				texture white.png
			}
		}
	}
}

material metia/frontwhite3
{
	technique
	{
		pass
		{
			lighting off
			
			scene_blend alpha_blend
			texture_unit
			{
				texture white.png
			}
		}
	}
}