%YAML 1.1
%TAG !u! tag:unity3d.com,2011:
--- !u!21 &2100000
Material:
  serializedVersion: 6
  m_ObjectHideFlags: 0
  m_PrefabParentObject: {fileID: 0}
  m_PrefabInternal: {fileID: 0}
  m_Name: LavaSample_6
  m_Shader: {fileID: 4800000, guid: f52441a30142fda4993ee731cdd8d881, type: 3}
  m_ShaderKeywords: 
  m_LightmapFlags: 5
  m_EnableInstancingVariants: 0
  m_DoubleSidedGI: 0
  m_CustomRenderQueue: -1
  stringTagMap: {}
  disabledShaderPasses: []
  m_SavedProperties:
    serializedVersion: 3
    m_TexEnvs:
    - _DepthTex:
        m_Texture: {fileID: 2800000, guid: b4aad8c83e7b3dc4d8c7966904b4cff6, type: 3}
        m_Scale: {x: 1, y: 1}
        m_Offset: {x: 0, y: 0}
    - _MainTex:
        m_Texture: {fileID: 2800000, guid: 01d5666bb5ae8a74da12ea96fbdcf791, type: 3}
        m_Scale: {x: 1, y: 1}
        m_Offset: {x: 0, y: 0}
    m_Floats:
    - _Fog: 0
    - _Power: 1.89
    - _ScaleFromOrigin: 0
    - _ScrollX: 0
    - _ScrollXAxis: 0
    - _ScrollYAxis: 0
    - _Speed: 0.1
    - _SpeedX: 1
    - _SpeedY: 0
    m_Colors:
    - _Color: {r: 1, g: 1, b: 1, a: 1}
