%YAML 1.1
%TAG !u! tag:unity3d.com,2011:
--- !u!114 &11400000
MonoBehaviour:
  m_ObjectHideFlags: 0
  m_PrefabParentObject: {fileID: 0}
  m_PrefabInternal: {fileID: 0}
  m_GameObject: {fileID: 0}
  m_Enabled: 1
  m_EditorHideFlags: 0
  m_Script: {fileID: 11500000, guid: 36baaa8bdcb9d8b49b9199833965d2c3, type: 3}
  m_Name: CameraBrain Blends
  m_EditorClassIdentifier: 
  m_CustomBlends:
  - m_From: CM vcam-First
    m_To: CM vcam-Transition
    m_Blend:
      m_Style: 1
      m_Time: 2
  - m_From: CM vcam-Transition
    m_To: CM vcam-Final
    m_Blend:
      m_Style: 1
      m_Time: 2
