%YAML 1.1
%TAG !u! tag:unity3d.com,2011:
--- !u!21 &2100000
Material:
  serializedVersion: 6
  m_ObjectHideFlags: 0
  m_PrefabParentObject: {fileID: 0}
  m_PrefabInternal: {fileID: 0}
  m_Name: 3_firesprit
  m_Shader: {fileID: 200, guid: 0000000000000000f000000000000000, type: 0}
  m_ShaderKeywords: 
  m_LightmapFlags: 5
  m_CustomRenderQueue: -1
  stringTagMap: {}
  m_SavedProperties:
    serializedVersion: 2
    m_TexEnvs:
      data:
        first:
          name: _MainTex
        second:
          m_Texture: {fileID: 2800000, guid: 08288a34a434cc941b1fef97f54947e7, type: 3}
          m_Scale: {x: 1, y: 1}
          m_Offset: {x: 0, y: 0}
    m_Floats:
      data:
        first:
          name: _Cutoff
        second: .77692306
      data:
        first:
          name: _Shininess
        second: .699999988
      data:
        first:
          name: _InvFade
        second: .907999992
    m_Colors:
      data:
        first:
          name: _Color
        second: {r: .687010348, g: .723880589, b: .394352853, a: .709803939}
      data:
        first:
          name: _SpecColor
        second: {r: 1, g: 1, b: 1, a: 0}
      data:
        first:
          name: _TintColor
        second: {r: .380596995, g: .380596995, b: .380596995, a: .835294127}
      data:
        first:
          name: _Emission
        second: {r: 0, g: 0, b: 0, a: 0}
