%YAML 1.1
%TAG !u! tag:unity3d.com,2011:
--- !u!21 &2100000
Material:
  serializedVersion: 6
  m_ObjectHideFlags: 0
  m_PrefabParentObject: {fileID: 0}
  m_PrefabInternal: {fileID: 0}
  m_Name: boy_body_dress
  m_Shader: {fileID: 4800000, guid: 01ae6ec32853b00498f6cd48469841fc, type: 3}
  m_ShaderKeywords: 
  m_LightmapFlags: 5
  m_EnableInstancingVariants: 0
  m_DoubleSidedGI: 0
  m_CustomRenderQueue: -1
  stringTagMap: {}
  disabledShaderPasses: []
  m_SavedProperties:
    serializedVersion: 3
    m_TexEnvs:
    - _MainTex:
        m_Texture: {fileID: 2800000, guid: 9d8ea97320d9a694fb8ebce616d8e62d, type: 3}
        m_Scale: {x: 1, y: 1}
        m_Offset: {x: 0, y: 0}
    - _PathTex:
        m_Texture: {fileID: 2800000, guid: 07c99215892fac94986b2f0df04d124f, type: 3}
        m_Scale: {x: 1, y: 1}
        m_Offset: {x: 0, y: 0}
    m_Floats:
    - _Blend: 1
    m_Colors:
    - _Color: {r: 0.080251716, g: 0.97761196, b: 0.3347271, a: 1}
    - _Default: {r: 1, g: 1, b: 1, a: 1}
